Projects in Data Science Activity A1b: Data Wrangling
…
BirthdaysYearState<-group_by(Birthdays,year,state)
summarise(BirthdaysYearState, average=mean(births))

## # A tibble: 1,020 x 3
## # Groups:   year [?]
##     year state   average
##    <int> <chr>     <dbl>
##  1  1969    AK  18.64481
##  2  1969    AL 174.09783
##  3  1969    AR  91.25683
##  4  1969    AZ  93.32603
##  5  1969    CA 953.67027
##  6  1969    CO 109.86301
##  7  1969    CT 134.01635
##  8  1969    DC  75.28455
##  9  1969    DE  27.56403
## 10  1969    FL 292.14754
## # ... with 1,010 more rows
…
